# Fdb version 3
["pdflatex"] 1461988027 "act11.tex" "act11.pdf" "act11" 1461988028
  "/usr/share/texmf-dist/fonts/map/fontname/texfonts.map" 1447534192 3287 e6b82fe08f5336d4d5ebc73fb1152e87 ""
  "/usr/share/texmf-dist/fonts/tfm/public/amsfonts/cmextra/cmex7.tfm" 1447534189 1004 54797486969f23fa377b128694d548df ""
  "/usr/share/texmf-dist/fonts/tfm/public/amsfonts/cmextra/cmex8.tfm" 1447534189 988 bdf658c3bfc2d96d3c8b02cfc1c94c20 ""
  "/usr/share/texmf-dist/fonts/tfm/public/cm/cmex10.tfm" 1447534189 992 662f679a0b3d2d53c1b94050fdaa3f50 ""
  "/usr/share/texmf-dist/fonts/tfm/public/cm/cmmi12.tfm" 1447534189 1524 4414a8315f39513458b80dfc63bff03a ""
  "/usr/share/texmf-dist/fonts/tfm/public/cm/cmmi6.tfm" 1447534189 1512 f21f83efb36853c0b70002322c1ab3ad ""
  "/usr/share/texmf-dist/fonts/tfm/public/cm/cmmi8.tfm" 1447534189 1520 eccf95517727cb11801f4f1aee3a21b4 ""
  "/usr/share/texmf-dist/fonts/tfm/public/cm/cmr12.tfm" 1447534189 1288 655e228510b4c2a1abe905c368440826 ""
  "/usr/share/texmf-dist/fonts/tfm/public/cm/cmr17.tfm" 1447534189 1292 296a67155bdbfc32aa9c636f21e91433 ""
  "/usr/share/texmf-dist/fonts/tfm/public/cm/cmr6.tfm" 1447534189 1300 b62933e007d01cfd073f79b963c01526 ""
  "/usr/share/texmf-dist/fonts/tfm/public/cm/cmr8.tfm" 1447534189 1292 21c1c5bfeaebccffdb478fd231a0997d ""
  "/usr/share/texmf-dist/fonts/tfm/public/cm/cmsy10.tfm" 1447534189 1124 6c73e740cf17375f03eec0ee63599741 ""
  "/usr/share/texmf-dist/fonts/tfm/public/cm/cmsy6.tfm" 1447534189 1116 933a60c408fc0a863a92debe84b2d294 ""
  "/usr/share/texmf-dist/fonts/tfm/public/cm/cmsy8.tfm" 1447534189 1120 8b7d695260f3cff42e636090a8002094 ""
  "/usr/share/texmf-dist/fonts/type1/public/amsfonts/cm/cmmi10.pfb" 1447534193 36299 5f9df58c2139e7edcf37c8fca4bd384d ""
  "/usr/share/texmf-dist/fonts/type1/public/amsfonts/cm/cmr10.pfb" 1447534193 35752 024fb6c41858982481f6968b5fc26508 ""
  "/usr/share/texmf-dist/fonts/type1/public/amsfonts/cm/cmr12.pfb" 1447534193 32722 d7379af29a190c3f453aba36302ff5a9 ""
  "/usr/share/texmf-dist/fonts/type1/public/amsfonts/cm/cmr17.pfb" 1447534193 32362 179c33bbf43f19adbb3825bb4e36e57a ""
  "/usr/share/texmf-dist/fonts/type1/public/amsfonts/cm/cmsy10.pfb" 1447534193 32569 5e5ddc8df908dea60932f3c484a54c0d ""
  "/usr/share/texmf-dist/fonts/type1/public/amsfonts/cm/cmsy7.pfb" 1447534193 32716 08e384dc442464e7285e891af9f45947 ""
  "/usr/share/texmf-dist/tex/latex/amsmath/amsbsy.sty" 1447534194 2412 2d98314dc5be38f455f8890deeb2d091 ""
  "/usr/share/texmf-dist/tex/latex/amsmath/amsgen.sty" 1447534194 4357 ad30ad08920902fc9b38caf35a3b0496 ""
  "/usr/share/texmf-dist/tex/latex/amsmath/amsmath.sty" 1447534194 79178 b2e326c351e876df0e5e23df2e02441b ""
  "/usr/share/texmf-dist/tex/latex/amsmath/amsopn.sty" 1447534194 4082 502152465aedb8f6a3c4b0b7c0fa8ae5 ""
  "/usr/share/texmf-dist/tex/latex/amsmath/amstext.sty" 1447534194 2637 846ebe982d3549c7ede7ce135456f54a ""
  "/usr/share/texmf-dist/tex/latex/base/article.cls" 1447534195 20708 96f8bca6e380179cada1d49716376167 ""
  "/usr/share/texmf-dist/tex/latex/base/inputenc.sty" 1447534195 5619 3f48adceb9004b3fefe24c2d2df7d98e ""
  "/usr/share/texmf-dist/tex/latex/base/omsenc.dfu" 1447534195 2005 7c2d714aaabaaea61849505248223f63 ""
  "/usr/share/texmf-dist/tex/latex/base/ot1enc.dfu" 1447534195 3182 b53a533f1102cf7a2bd05abd8c36f5cc ""
  "/usr/share/texmf-dist/tex/latex/base/size10.clo" 1447534195 9179 632e23fed01c842f2eaef1dd9953a446 ""
  "/usr/share/texmf-dist/tex/latex/base/t1enc.dfu" 1447534195 8042 3f4a6e08c01d3f356d68475717820651 ""
  "/usr/share/texmf-dist/tex/latex/base/utf8.def" 1447534195 7785 611d77e97e4abe4e551c78110cc11963 ""
  "/usr/share/texmf-dist/tex/latex/csquotes/csquotes.cfg" 1447536546 7068 06f8d141725d114847527a66439066b6 ""
  "/usr/share/texmf-dist/tex/latex/csquotes/csquotes.def" 1447536546 16675 160f81936e6321c2a3d0f81ceb4ec0b6 ""
  "/usr/share/texmf-dist/tex/latex/csquotes/csquotes.sty" 1447536546 61470 ee68b9fe2656132e7b48196ffc80d253 ""
  "/usr/share/texmf-dist/tex/latex/etoolbox/etoolbox.sty" 1447536546 41547 7860e623236f5f726a4099bbb7dd89fb ""
  "/usr/share/texmf-dist/tex/latex/graphics/keyval.sty" 1447534195 2594 d18d5e19aa8239cf867fa670c556d2e9 ""
  "/usr/share/texmf-dist/web2c/texmf.cnf" 1447534201 31669 df537245012f3e5f05bdc55644b7a3df ""
  "/var/lib/texmf/fonts/map/pdftex/updmap/pdftex.map" 1461383338 1783878 cf8b1e7bbc2d6490b1e449a6b1daa41e ""
  "/var/lib/texmf/web2c/pdftex/pdflatex.fmt" 1461379270 7214063 531ac20d75e7c9dc63427379ef863f51 ""
  "act11.aux" 1461988028 8 a94a2480d3289e625eea47cd1b285758 ""
  "act11.tex" 1461988026 3743 3801034ef3c6435e5f932a3509abb777 ""
  (generated)
  "act11.log"
  "act11.aux"
  "act11.pdf"
