1.
    ∫(3*x+4)^2*dx =
            u = 3*x+4
            du(3*x+4)/dx = 3 -> du = 3*dx
    ∫((3*x+4)^2*3*dx)/3 =
    (1/3)*∫(3*x+4)^2*3*dx =
    (1/3)*∫u^2*du =
        (1/3)*u^3/3 + C =
        u^3/9 + C =
            (3*x+4)^3/9 + C
2.
    ∫(x^3+2)^5*3*x^2*dx =
            u = (x^3+2)
            du^(x^3+2)/dx = 3*x^2 -> du = 3*x^2*dx
    ∫u^5*du =
        u^6/6 + C
            (x^3+2)^6/6 + C
3.
    ∫(x^3-5)^(1/2)*x^2*dx =
            u = x^3-5
            du = 3*x^2*dx
    (1/3)*∫(x^3-5)^(1/2)*3*x^2*dx =
    (1/3)*∫u^(1/2)*du =
        (1/3)*u^(3/2)/(3/2) + C =
        2*u^(3/2)/9 + C =
            (2/9)*(x^3-5)^(3/2) + C
4.
    ∫(8*x^2/(x^3+9)^3)*dx =
    ∫(8*x^2*(x^3+9)^-3*dx =
        u = x^3+9
        du = 3*x^2*dx
    (8/3)*∫3*x^2*(x^3+9)^-3*dx =
    (8/3)∫u^-3*du =
        (8/3)*u^-2/-2 + C=
        8*u^-2/-6 + C=
        -4*u^-2/3 + C=
        -4/3*u^2 + C=
            -4/3*(x^3+9)^2 + C
