\relax 
\@writefile{toc}{\contentsline {section}{\numberline {1}Kirchoff}{1}}
\newlabel{sec:Kirchoff}{{1}{1}}
\@writefile{toc}{\contentsline {section}{\numberline {2}Ley de Ohm}{1}}
\newlabel{sec:Ley de Ohm}{{2}{1}}
\@writefile{toc}{\contentsline {section}{\numberline {3}Corrientes}{1}}
\newlabel{sec:Corrientes}{{3}{1}}
