\relax 
\@writefile{toc}{\contentsline {section}{\numberline {1}GCD}{2}}
\@writefile{toc}{\contentsline {subsection}{\numberline {1.1}Algoritmo}{2}}
\@writefile{toc}{\contentsline {subsection}{\numberline {1.2}Diagrama de flujo}{2}}
\@writefile{toc}{\contentsline {section}{\numberline {2}Cubo}{3}}
\@writefile{toc}{\contentsline {subsection}{\numberline {2.1}Algoritmo}{3}}
\@writefile{toc}{\contentsline {subsection}{\numberline {2.2}Diagrama de flujo}{3}}
\@writefile{toc}{\contentsline {section}{\numberline {3}Factorial}{4}}
\@writefile{toc}{\contentsline {subsection}{\numberline {3.1}Algoritmo}{4}}
\@writefile{toc}{\contentsline {subsection}{\numberline {3.2}Diagrama de flujo}{4}}
\@writefile{toc}{\contentsline {section}{\numberline {4}Adivinador}{5}}
\@writefile{toc}{\contentsline {subsection}{\numberline {4.1}Algoritmo}{5}}
\@writefile{toc}{\contentsline {subsection}{\numberline {4.2}Diagrama de flujo}{6}}
