# Fdb version 3
["biber presentation"] 1463097160 "presentation.bcf" "presentation.bbl" "presentation" 1463097165
  "presentation.bcf" 1463097165 102246 bb77a2d184443ee2a390f8f00d1a3dc4 ""
  "references.bib" 1463097150 1491 137a291aad415bc5a63a090a8d494e54 ""
  (generated)
  "presentation.bbl"
  "presentation.blg"
["pdflatex"] 1463097161 "presentation.tex" "presentation.pdf" "presentation" 1463097165
  "./img/automata.png" 1463095431 22021 582c51094507d62f8a19bc54c4b6ca55 ""
  "./img/cell.png" 1463095431 14115 bd9f39d156e15d1bb4167805d7aff14b ""
  "./img/moore.png" 1463095431 1674 1f0b34effb0920e4f3b7a2d58c41767b ""
  "./img/sim1.png" 1463095432 254214 144f038fe8b4b215a62e1b0fb53a99f4 ""
  "./img/sim2.png" 1463095433 278281 c2a72f9d621e75be4398c349af797d9f ""
  "./img/sim3.png" 1463095434 273856 07203681d6e3f646db4db6dbd76d8e20 ""
  "./img/sim5.png" 1463095436 281121 22ee87ab8094f7a0a633a2df62fef399 ""
  "./img/sim6.png" 1463095437 273634 0d93ad6afb6ba5c6995e621353d871dd ""
  "./img/sim7.png" 1463095437 265830 1a57a961f87ff488fb8afa37ab44980d ""
  "./presentation.out" 1463097165 453 233e0d1659e19bf2fd077d6cfb46c4b7 ""
  "/usr/share/texmf-dist/fonts/map/fontname/texfonts.map" 1447534192 3287 e6b82fe08f5336d4d5ebc73fb1152e87 ""
  "/usr/share/texmf-dist/fonts/tfm/public/amsfonts/cmextra/cmex7.tfm" 1447534189 1004 54797486969f23fa377b128694d548df ""
  "/usr/share/texmf-dist/fonts/tfm/public/amsfonts/cmextra/cmex8.tfm" 1447534189 988 bdf658c3bfc2d96d3c8b02cfc1c94c20 ""
  "/usr/share/texmf-dist/fonts/tfm/public/amsfonts/symbols/msam10.tfm" 1447534189 916 f87d7c45f9c908e672703b83b72241a3 ""
  "/usr/share/texmf-dist/fonts/tfm/public/amsfonts/symbols/msam7.tfm" 1447534189 928 2dc8d444221b7a635bb58038579b861a ""
  "/usr/share/texmf-dist/fonts/tfm/public/amsfonts/symbols/msbm10.tfm" 1447534189 908 2921f8a10601f252058503cc6570e581 ""
  "/usr/share/texmf-dist/fonts/tfm/public/amsfonts/symbols/msbm7.tfm" 1447534189 940 228d6584342e91276bf566bcf9716b83 ""
  "/usr/share/texmf-dist/fonts/tfm/public/cm/cmcsc10.tfm" 1447534189 1300 63a6111ee6274895728663cf4b4e7e81 ""
  "/usr/share/texmf-dist/fonts/tfm/public/cm/cmex10.tfm" 1447534189 992 662f679a0b3d2d53c1b94050fdaa3f50 ""
  "/usr/share/texmf-dist/fonts/tfm/public/cm/cmmi10.tfm" 1447534189 1528 abec98dbc43e172678c11b3b9031252a ""
  "/usr/share/texmf-dist/fonts/tfm/public/cm/cmmi6.tfm" 1447534189 1512 f21f83efb36853c0b70002322c1ab3ad ""
  "/usr/share/texmf-dist/fonts/tfm/public/cm/cmmi8.tfm" 1447534189 1520 eccf95517727cb11801f4f1aee3a21b4 ""
  "/usr/share/texmf-dist/fonts/tfm/public/cm/cmr10.tfm" 1447534189 1296 45809c5a464d5f32c8f98ba97c1bb47f ""
  "/usr/share/texmf-dist/fonts/tfm/public/cm/cmss10.tfm" 1447534189 1316 b636689f1933f24d1294acdf6041daaa ""
  "/usr/share/texmf-dist/fonts/tfm/public/cm/cmss12.tfm" 1447534189 1324 37b971caf729d7edd9cbb9f9b0ea76eb ""
  "/usr/share/texmf-dist/fonts/tfm/public/cm/cmss8.tfm" 1447534189 1296 d77f431d10d47c8ea2cc18cf45346274 ""
  "/usr/share/texmf-dist/fonts/tfm/public/cm/cmssi10.tfm" 1447534189 1520 ca2bb4b78ac9800bd686e30c6d19ef95 ""
  "/usr/share/texmf-dist/fonts/tfm/public/cm/cmsy10.tfm" 1447534189 1124 6c73e740cf17375f03eec0ee63599741 ""
  "/usr/share/texmf-dist/fonts/tfm/public/cm/cmsy6.tfm" 1447534189 1116 933a60c408fc0a863a92debe84b2d294 ""
  "/usr/share/texmf-dist/fonts/tfm/public/cm/cmsy8.tfm" 1447534189 1120 8b7d695260f3cff42e636090a8002094 ""
  "/usr/share/texmf-dist/fonts/tfm/public/cm/cmtt10.tfm" 1447534189 768 1321e9409b4137d6fb428ac9dc956269 ""
  "/usr/share/texmf-dist/fonts/tfm/public/sansmathaccent/mathkerncmssi10.tfm" 1447534347 1696 aaa5bbd1f47f001247d42218ce371101 ""
  "/usr/share/texmf-dist/fonts/tfm/public/sansmathaccent/mathkerncmssi8.tfm" 1447534347 1676 fb6c6a335484692abff897d6e8965829 ""
  "/usr/share/texmf-dist/fonts/type1/public/amsfonts/cm/cmcsc10.pfb" 1447534193 32001 6aeea3afe875097b1eb0da29acd61e28 ""
  "/usr/share/texmf-dist/fonts/type1/public/amsfonts/cm/cmmi10.pfb" 1447534193 36299 5f9df58c2139e7edcf37c8fca4bd384d ""
  "/usr/share/texmf-dist/fonts/type1/public/amsfonts/cm/cmss10.pfb" 1447534193 24457 5cbb7bdf209d5d1ce9892a9b80a307cc ""
  "/usr/share/texmf-dist/fonts/type1/public/amsfonts/cm/cmss12.pfb" 1447534193 24393 3b7eb51a67a0a62aec5849271bdb9c2e ""
  "/usr/share/texmf-dist/fonts/type1/public/amsfonts/cm/cmss8.pfb" 1447534193 24420 52dbb8e8aa0069a1b987309557f8d303 ""
  "/usr/share/texmf-dist/fonts/type1/public/amsfonts/cm/cmssi10.pfb" 1447534193 25150 e0d09798d232ab9d00c5c0a8df6cc22d ""
  "/usr/share/texmf-dist/fonts/type1/public/amsfonts/cm/cmsy10.pfb" 1447534193 32569 5e5ddc8df908dea60932f3c484a54c0d ""
  "/usr/share/texmf-dist/fonts/type1/public/amsfonts/cm/cmtt10.pfb" 1447534193 31099 c85edf1dd5b9e826d67c9c7293b6786c ""
  "/usr/share/texmf-dist/tex/context/base/supp-pdf.mkii" 1447534200 71627 94eb9990bed73c364d7f53f960cc8c5b ""
  "/usr/share/texmf-dist/tex/generic/ifxetex/ifxetex.sty" 1447534197 1458 43ab4710dc82f3edeabecd0d099626b2 ""
  "/usr/share/texmf-dist/tex/generic/oberdiek/atbegshi.sty" 1447534196 24460 92f559a71aac869021852c227c704b38 ""
  "/usr/share/texmf-dist/tex/generic/oberdiek/gettitlestring.sty" 1447534196 8237 52810bdb4db2270e717422560a104aea ""
  "/usr/share/texmf-dist/tex/generic/oberdiek/hobsub-generic.sty" 1447534196 189108 8b3553a56c83ff61acecb36b75d817e2 ""
  "/usr/share/texmf-dist/tex/generic/oberdiek/hobsub-hyperref.sty" 1447534196 70752 45fa392800e07da61fa13446ad46b34d ""
  "/usr/share/texmf-dist/tex/generic/oberdiek/ifpdf.sty" 1447534196 7140 ece2cc23d9f20e1f53975ac167f42d3e ""
  "/usr/share/texmf-dist/tex/generic/oberdiek/ifvtex.sty" 1447534196 6797 68c89f65e01894df882dd523d3fc0a8f ""
  "/usr/share/texmf-dist/tex/generic/oberdiek/infwarerr.sty" 1447534196 8253 3bdedc8409aa5d290a2339be6f09af03 ""
  "/usr/share/texmf-dist/tex/generic/oberdiek/ltxcmds.sty" 1447534197 18425 775b341047ce304520cc7c11ca41392e ""
  "/usr/share/texmf-dist/tex/generic/pgf/basiclayer/pgfcore.code.tex" 1447534197 1006 b103be0bfc8c1682ff1fa9760697a329 ""
  "/usr/share/texmf-dist/tex/generic/pgf/basiclayer/pgfcorearrows.code.tex" 1447534197 43226 167a99346bfe2676e3efcdde2d81fe45 ""
  "/usr/share/texmf-dist/tex/generic/pgf/basiclayer/pgfcoreexternal.code.tex" 1447534197 19302 4f089dc590e71f7331e6d5b5ea85273b ""
  "/usr/share/texmf-dist/tex/generic/pgf/basiclayer/pgfcoregraphicstate.code.tex" 1447534197 6068 edae1e768a7d8d8f0f00e953d2b0153e ""
  "/usr/share/texmf-dist/tex/generic/pgf/basiclayer/pgfcoreimage.code.tex" 1447534197 7041 a891ad72049e17c4e366c40ca37b0ccb ""
  "/usr/share/texmf-dist/tex/generic/pgf/basiclayer/pgfcorelayers.code.tex" 1447534197 4625 40c07e9f6f2f7c674704b3f2055560ce ""
  "/usr/share/texmf-dist/tex/generic/pgf/basiclayer/pgfcoreobjects.code.tex" 1447534197 2631 7eefa6cdbefd8d4e2bad7262cf1094cd ""
  "/usr/share/texmf-dist/tex/generic/pgf/basiclayer/pgfcorepathconstruct.code.tex" 1447534197 43477 81143b33d9ebafdeead07ede13372427 ""
  "/usr/share/texmf-dist/tex/generic/pgf/basiclayer/pgfcorepathprocessing.code.tex" 1447534197 17436 8d99d4113be311daf23deff86991ee7d ""
  "/usr/share/texmf-dist/tex/generic/pgf/basiclayer/pgfcorepathusage.code.tex" 1447534197 20772 c57e34db4aa7b1da013169d04b743eac ""
  "/usr/share/texmf-dist/tex/generic/pgf/basiclayer/pgfcorepatterns.code.tex" 1447534197 9641 711f0edc22c180a5caf168b6e8970057 ""
  "/usr/share/texmf-dist/tex/generic/pgf/basiclayer/pgfcorepoints.code.tex" 1447534197 34516 658a71478d21df554bce9d9cd436203a ""
  "/usr/share/texmf-dist/tex/generic/pgf/basiclayer/pgfcorequick.code.tex" 1447534197 3052 e5672c657232fd63b0a9853b0746297c ""
  "/usr/share/texmf-dist/tex/generic/pgf/basiclayer/pgfcorescopes.code.tex" 1447534197 16669 4ec6e40088fc6de6334b443fe2dc59f0 ""
  "/usr/share/texmf-dist/tex/generic/pgf/basiclayer/pgfcoreshade.code.tex" 1447534197 21541 4cd19f8ff7dd74d5aa7d803a6397af84 ""
  "/usr/share/texmf-dist/tex/generic/pgf/basiclayer/pgfcoretransformations.code.tex" 1447534197 19998 d77fef95c7369827753d17fd11be19c4 ""
  "/usr/share/texmf-dist/tex/generic/pgf/basiclayer/pgfcoretransparency.code.tex" 1447534197 8943 2e2495b057f8f0035b5568394d489963 ""
  "/usr/share/texmf-dist/tex/generic/pgf/frontendlayer/tikz/libraries/tikzlibraryarrows.code.tex" 1447534197 437 cf40f841f40822be6cb995f8b47112fd ""
  "/usr/share/texmf-dist/tex/generic/pgf/frontendlayer/tikz/libraries/tikzlibrarytopaths.code.tex" 1447534197 11599 d694704a88e2f9007c996d3a6a4d629c ""
  "/usr/share/texmf-dist/tex/generic/pgf/frontendlayer/tikz/tikz.code.tex" 1447534197 176652 1c2926908e2b356d454795c35385d580 ""
  "/usr/share/texmf-dist/tex/generic/pgf/libraries/pgflibraryarrows.code.tex" 1447534197 31927 7acd27f90dd95ce67ad32166cd0b95ec ""
  "/usr/share/texmf-dist/tex/generic/pgf/libraries/pgflibraryplothandlers.code.tex" 1447534197 32969 dbcfd5a7de6a0f7255c333ef60287d59 ""
  "/usr/share/texmf-dist/tex/generic/pgf/math/pgfmath.code.tex" 1447534197 454 9e9e7c99f4da4f41698be21eaef4938e ""
  "/usr/share/texmf-dist/tex/generic/pgf/math/pgfmathcalc.code.tex" 1447534197 13416 940ea6971d7a65dc440d3479939c66ae ""
  "/usr/share/texmf-dist/tex/generic/pgf/math/pgfmathfloat.code.tex" 1447534197 94097 62ac62cda46eb715560dc27f9ed6e8b1 ""
  "/usr/share/texmf-dist/tex/generic/pgf/math/pgfmathfunctions.base.code.tex" 1447534197 9375 5adc70f722abd29fc250d59e0694b548 ""
  "/usr/share/texmf-dist/tex/generic/pgf/math/pgfmathfunctions.basic.code.tex" 1447534197 22069 7c21c42b15718ce922f36235be360490 ""
  "/usr/share/texmf-dist/tex/generic/pgf/math/pgfmathfunctions.code.tex" 1447534197 8210 a7be5b52ef3d2c087b7dc3d52898b67e ""
  "/usr/share/texmf-dist/tex/generic/pgf/math/pgfmathfunctions.comparison.code.tex" 1447534197 3534 c7f28fbac13616513e513efe93b8569b ""
  "/usr/share/texmf-dist/tex/generic/pgf/math/pgfmathfunctions.integerarithmetics.code.tex" 1447534197 3167 7c9394e79aac27db96a92f9b2792b858 ""
  "/usr/share/texmf-dist/tex/generic/pgf/math/pgfmathfunctions.misc.code.tex" 1447534197 9289 261407875b9dbb0194691c3eb893610f ""
  "/usr/share/texmf-dist/tex/generic/pgf/math/pgfmathfunctions.random.code.tex" 1447534197 7078 946ddf4a7e57219b6afdbad98eb6731b ""
  "/usr/share/texmf-dist/tex/generic/pgf/math/pgfmathfunctions.round.code.tex" 1447534197 2688 139c6abc86761a6190c2f4bef5d752be ""
  "/usr/share/texmf-dist/tex/generic/pgf/math/pgfmathfunctions.trigonometric.code.tex" 1447534197 92284 dcf023dbaa84e6c50e11c2f79fe8cfa6 ""
  "/usr/share/texmf-dist/tex/generic/pgf/math/pgfmathparser.code.tex" 1447534197 35430 046e15fbb65e74d8f0e7945f99741fdb ""
  "/usr/share/texmf-dist/tex/generic/pgf/math/pgfmathutil.code.tex" 1447534197 7099 f44d505bae6c7c2b933cdd63441db4b9 ""
  "/usr/share/texmf-dist/tex/generic/pgf/modules/pgfmodulematrix.code.tex" 1447534197 20934 2328bd2e04520e1ab077ac4ee13b8935 ""
  "/usr/share/texmf-dist/tex/generic/pgf/modules/pgfmoduleplot.code.tex" 1447534197 16203 83cbe1220e389eeee283a6168f9a567b ""
  "/usr/share/texmf-dist/tex/generic/pgf/modules/pgfmoduleshapes.code.tex" 1447534197 42906 d54376d96df1a2ae2d33fb722236d8e9 ""
  "/usr/share/texmf-dist/tex/generic/pgf/systemlayer/pgf.cfg" 1447534197 978 15af626ebd3d4d790aac19170dac04f2 ""
  "/usr/share/texmf-dist/tex/generic/pgf/systemlayer/pgfsys-common-pdf.def" 1447534197 5437 d91f93ed61ecdc57e119849b2d784a0b ""
  "/usr/share/texmf-dist/tex/generic/pgf/systemlayer/pgfsys-pdftex.def" 1447534197 13507 809d848d9262638e1b1705a68a73c566 ""
  "/usr/share/texmf-dist/tex/generic/pgf/systemlayer/pgfsys.code.tex" 1447534197 35113 2ccc50c1c9573e4bac9230d030f9c67c ""
  "/usr/share/texmf-dist/tex/generic/pgf/systemlayer/pgfsysprotocol.code.tex" 1447534197 1983 b5994ebbcee17f1ba3d29bb1bd696fcf ""
  "/usr/share/texmf-dist/tex/generic/pgf/systemlayer/pgfsyssoftpath.code.tex" 1447534197 7881 d459d6057e13d10ce7a227ae44b7295e ""
  "/usr/share/texmf-dist/tex/generic/pgf/utilities/pgffor.code.tex" 1447534197 22211 d696ef78c12269178882d218b2cf191d ""
  "/usr/share/texmf-dist/tex/generic/pgf/utilities/pgfkeys.code.tex" 1447534197 36194 e194ef4e0b396b531a3891feb4b1cc22 ""
  "/usr/share/texmf-dist/tex/generic/pgf/utilities/pgfkeysfiltered.code.tex" 1447534197 33377 af391d6ad1bfcbe2278e191f48e43ba8 ""
  "/usr/share/texmf-dist/tex/generic/pgf/utilities/pgfrcs.code.tex" 1447534197 2536 a3b0529d815a2759ba157b56610a6377 ""
  "/usr/share/texmf-dist/tex/generic/pgf/utilities/pgfutil-common-lists.tex" 1447534197 6833 114eda2cf1d348e0e7e477a1a4dc1941 ""
  "/usr/share/texmf-dist/tex/generic/pgf/utilities/pgfutil-common.tex" 1447534197 16501 ab0135765e27b6b8dae047831fe84818 ""
  "/usr/share/texmf-dist/tex/generic/pgf/utilities/pgfutil-latex.def" 1447534197 5544 294baac9629ba59f675b1f2027ad7136 ""
  "/usr/share/texmf-dist/tex/generic/xkeyval/xkeyval.tex" 1447534197 19231 26434a5656c684f5ffb1f26f98006baa ""
  "/usr/share/texmf-dist/tex/generic/xkeyval/xkvutils.tex" 1447534197 7677 6f5ce7c1124cad7ec57d05b2562bd8fe ""
  "/usr/share/texmf-dist/tex/latex/amscls/amsthm.sty" 1447534194 12225 3cca0d18522255979a1047206228b9d0 ""
  "/usr/share/texmf-dist/tex/latex/amsfonts/amsfonts.sty" 1447534194 5949 3f3fd50a8cc94c3d4cbf4fc66cd3df1c ""
  "/usr/share/texmf-dist/tex/latex/amsfonts/amssymb.sty" 1447534194 13829 94730e64147574077f8ecfea9bb69af4 ""
  "/usr/share/texmf-dist/tex/latex/amsfonts/umsa.fd" 1447534194 961 6518c6525a34feb5e8250ffa91731cff ""
  "/usr/share/texmf-dist/tex/latex/amsfonts/umsb.fd" 1447534194 961 d02606146ba5601b5645f987c92e6193 ""
  "/usr/share/texmf-dist/tex/latex/amsmath/amsbsy.sty" 1447534194 2412 2d98314dc5be38f455f8890deeb2d091 ""
  "/usr/share/texmf-dist/tex/latex/amsmath/amsgen.sty" 1447534194 4357 ad30ad08920902fc9b38caf35a3b0496 ""
  "/usr/share/texmf-dist/tex/latex/amsmath/amsmath.sty" 1447534194 79178 b2e326c351e876df0e5e23df2e02441b ""
  "/usr/share/texmf-dist/tex/latex/amsmath/amsopn.sty" 1447534194 4082 502152465aedb8f6a3c4b0b7c0fa8ae5 ""
  "/usr/share/texmf-dist/tex/latex/amsmath/amstext.sty" 1447534194 2637 846ebe982d3549c7ede7ce135456f54a ""
  "/usr/share/texmf-dist/tex/latex/base/ifthen.sty" 1447534195 5159 bb529586d444e85eb00179221b678119 ""
  "/usr/share/texmf-dist/tex/latex/base/inputenc.sty" 1447534195 5619 3f48adceb9004b3fefe24c2d2df7d98e ""
  "/usr/share/texmf-dist/tex/latex/base/omsenc.dfu" 1447534195 2005 7c2d714aaabaaea61849505248223f63 ""
  "/usr/share/texmf-dist/tex/latex/base/ot1enc.dfu" 1447534195 3182 b53a533f1102cf7a2bd05abd8c36f5cc ""
  "/usr/share/texmf-dist/tex/latex/base/size11.clo" 1447534195 9195 b429d9ae04d88356fbd16a7b811e600f ""
  "/usr/share/texmf-dist/tex/latex/base/t1enc.dfu" 1447534195 8042 3f4a6e08c01d3f356d68475717820651 ""
  "/usr/share/texmf-dist/tex/latex/base/utf8.def" 1447534195 7785 611d77e97e4abe4e551c78110cc11963 ""
  "/usr/share/texmf-dist/tex/latex/beamer/art/beamericonarticle.20.pdf" 1447534194 2958 4e0c4a6e994e5c4d9da11c477e927f0f ""
  "/usr/share/texmf-dist/tex/latex/beamer/art/beamericonarticle.pdf" 1447534194 2936 6cc3ef0682cbb62be8aa1b19f0a84ed6 ""
  "/usr/share/texmf-dist/tex/latex/beamer/art/beamericonbook.20.pdf" 1447534194 2734 0bcf939051dd2a936cdfe5982f7c233b ""
  "/usr/share/texmf-dist/tex/latex/beamer/art/beamericonbook.pdf" 1447534194 2667 7624351b441ffe4bd2d14e08fbcf063d ""
  "/usr/share/texmf-dist/tex/latex/beamer/art/beamericononline.20.pdf" 1447534195 24451 195d2c060e84f339954bc6d9b52131d7 ""
  "/usr/share/texmf-dist/tex/latex/beamer/art/beamericononline.pdf" 1447534195 24611 df07010540266b2b205b492a4d02e7e1 ""
  "/usr/share/texmf-dist/tex/latex/beamer/beamer.cls" 1447534195 11652 d1eb7e7c6dc70b051da03c4df3becb6d ""
  "/usr/share/texmf-dist/tex/latex/beamer/beamerbaseauxtemplates.sty" 1447534195 21780 5f489ec6a37f9eeb9ce745f5df45583b ""
  "/usr/share/texmf-dist/tex/latex/beamer/beamerbaseboxes.sty" 1447534195 8152 67432f53408b0873c768b45587519831 ""
  "/usr/share/texmf-dist/tex/latex/beamer/beamerbasecolor.sty" 1447534195 13019 3c9318abd1e3357443fe791809922993 ""
  "/usr/share/texmf-dist/tex/latex/beamer/beamerbasecompatibility.sty" 1447534195 23615 6319bbb4324f4bee99017977c8ae0d16 ""
  "/usr/share/texmf-dist/tex/latex/beamer/beamerbasedecode.sty" 1447534195 8196 46ac7d7f25158a930825927ffc652ca1 ""
  "/usr/share/texmf-dist/tex/latex/beamer/beamerbasefont.sty" 1447534195 13245 5bcc75bb1885812c681fe98713e4bd2b ""
  "/usr/share/texmf-dist/tex/latex/beamer/beamerbaseframe.sty" 1447534195 24929 396878aa27c25ad36ff6c3832a851ef9 ""
  "/usr/share/texmf-dist/tex/latex/beamer/beamerbaseframecomponents.sty" 1447534195 11686 536054900c4397b6079fa08342a3439a ""
  "/usr/share/texmf-dist/tex/latex/beamer/beamerbaseframesize.sty" 1447534195 8859 dafd8fa216da7579c838fdae85e2a114 ""
  "/usr/share/texmf-dist/tex/latex/beamer/beamerbaselocalstructure.sty" 1447534195 16358 f2a1983940ebe8ecd324e9efb729077f ""
  "/usr/share/texmf-dist/tex/latex/beamer/beamerbasemisc.sty" 1447534195 7859 e74ac1416e53fb62ad9aaa2a38f60e13 ""
  "/usr/share/texmf-dist/tex/latex/beamer/beamerbasemodes.sty" 1447534195 8272 738cc131e9da6be9f6fb7088a3123fc5 ""
  "/usr/share/texmf-dist/tex/latex/beamer/beamerbasenavigation.sty" 1447534195 28725 c0bfaa20ea6da12ec36db89d5e6d552b ""
  "/usr/share/texmf-dist/tex/latex/beamer/beamerbasenotes.sty" 1447534195 5169 2b5c46f5aae1011bff912a1b0563d08f ""
  "/usr/share/texmf-dist/tex/latex/beamer/beamerbaseoptions.sty" 1447534195 1771 9a9e09ce9b99966cfa1fae34a7379ad4 ""
  "/usr/share/texmf-dist/tex/latex/beamer/beamerbaseoverlay.sty" 1447534195 26049 0760c785c3cad7739a585a439b697e1d ""
  "/usr/share/texmf-dist/tex/latex/beamer/beamerbasercs.sty" 1447534195 1150 aec60117ad71747c20d97f6493e3d3cd ""
  "/usr/share/texmf-dist/tex/latex/beamer/beamerbaserequires.sty" 1447534195 1768 973a5a56c6e32b2158ac04f40d5c9e34 ""
  "/usr/share/texmf-dist/tex/latex/beamer/beamerbasesection.sty" 1447534195 12566 d05c3f949b85a4352a7e2a73bcef3ef1 ""
  "/usr/share/texmf-dist/tex/latex/beamer/beamerbasetemplates.sty" 1447534195 5867 30b5faf6064b4c1f6cfcae537d53f777 ""
  "/usr/share/texmf-dist/tex/latex/beamer/beamerbasethemes.sty" 1447534195 1213 a65cfbdb3da53cdcb42aa357ee2c9a80 ""
  "/usr/share/texmf-dist/tex/latex/beamer/beamerbasetheorems.sty" 1447534195 4661 d4a08c8dfc775ff80af9a298b59f43f2 ""
  "/usr/share/texmf-dist/tex/latex/beamer/beamerbasetitle.sty" 1447534195 5576 052b5ee6784b3573f11875ef38a2c090 ""
  "/usr/share/texmf-dist/tex/latex/beamer/beamerbasetoc.sty" 1447534195 7367 ddc9437eeea0647cc89861eb97a892b1 ""
  "/usr/share/texmf-dist/tex/latex/beamer/beamerbasetranslator.sty" 1447534195 779 5bf46f7056f65a541979aa9432dfdfd2 ""
  "/usr/share/texmf-dist/tex/latex/beamer/beamerbasetwoscreens.sty" 1447534195 1516 d9e44becf9c2c14b8d981b7bcfb6305a ""
  "/usr/share/texmf-dist/tex/latex/beamer/beamerbaseverbatim.sty" 1447534195 3492 1a29b8c5e7309256d414f79a777fbe4e ""
  "/usr/share/texmf-dist/tex/latex/beamer/themes/color/beamercolorthemedefault.sty" 1447534195 7111 734d62bffaf1cebe91f0933f9e726313 ""
  "/usr/share/texmf-dist/tex/latex/beamer/themes/color/beamercolorthemedolphin.sty" 1447534195 1209 2b9d375aef24115ab55698ef6e039bb7 ""
  "/usr/share/texmf-dist/tex/latex/beamer/themes/font/beamerfontthemedefault.sty" 1447534195 4203 af57d0c57c4df9b07cc093bded923ade ""
  "/usr/share/texmf-dist/tex/latex/beamer/themes/inner/beamerinnerthemecircles.sty" 1447534195 509 e7cf37212c3c69cae625c452085e52e7 ""
  "/usr/share/texmf-dist/tex/latex/beamer/themes/inner/beamerinnerthemedefault.sty" 1447534195 12853 96c419e8933d04c8ef0cdc1b26023325 ""
  "/usr/share/texmf-dist/tex/latex/beamer/themes/outer/beamerouterthemedefault.sty" 1447534195 6548 8aa4c06cc7f4a89169b2324e0a036323 ""
  "/usr/share/texmf-dist/tex/latex/beamer/themes/theme/beamerthemePittsburgh.sty" 1447534195 489 48b090e9bc038e83e2d3ec7d2375411b ""
  "/usr/share/texmf-dist/tex/latex/beamer/themes/theme/beamerthemedefault.sty" 1447534195 509 f06bfcabac6b7c8411f16c350f5110af ""
  "/usr/share/texmf-dist/tex/latex/beamer/translator/dicts/translator-basic-dictionary/translator-basic-dictionary-English.dict" 1447534195 3435 0a4d096dde3f8fe682c2aedd33b8137d ""
  "/usr/share/texmf-dist/tex/latex/beamer/translator/dicts/translator-bibliography-dictionary/translator-bibliography-dictionary-English.dict" 1447534195 903 c6d17f0656e9e1abb172b4faebabd617 ""
  "/usr/share/texmf-dist/tex/latex/beamer/translator/dicts/translator-environment-dictionary/translator-environment-dictionary-English.dict" 1447534195 433 bfb8d1c2c020defd2de8e5c276710094 ""
  "/usr/share/texmf-dist/tex/latex/beamer/translator/dicts/translator-months-dictionary/translator-months-dictionary-English.dict" 1447534195 1337 9a6c05e8f0c8b3c5f27cbd0e455cf475 ""
  "/usr/share/texmf-dist/tex/latex/beamer/translator/dicts/translator-numbers-dictionary/translator-numbers-dictionary-English.dict" 1447534195 1638 2bf1a1dea98f8a4d28033fce76e9cc67 ""
  "/usr/share/texmf-dist/tex/latex/beamer/translator/dicts/translator-theorem-dictionary/translator-theorem-dictionary-English.dict" 1447534195 3523 1f9d9b91f7d78b73e74c7e97bca30fb0 ""
  "/usr/share/texmf-dist/tex/latex/beamer/translator/translator-language-mappings.tex" 1447534195 5067 f1bb98f63e0761f897f48a159127fbb6 ""
  "/usr/share/texmf-dist/tex/latex/beamer/translator/translator.sty" 1447534195 3824 9ccc2efa439cf13750315a0f20d4f691 ""
  "/usr/share/texmf-dist/tex/latex/biblatex/bbx/numeric.bbx" 1447534125 1643 b8b8541575a038864971a52949c77681 ""
  "/usr/share/texmf-dist/tex/latex/biblatex/bbx/standard.bbx" 1447534125 23803 b57149c53e2fb2325acf2b6e50c43bf7 ""
  "/usr/share/texmf-dist/tex/latex/biblatex/biblatex.cfg" 1447534125 69 249fa6df04d948e51b6d5c67bea30c42 ""
  "/usr/share/texmf-dist/tex/latex/biblatex/biblatex.def" 1447534125 92515 48235fbde22764d917980d7bb048d7d9 ""
  "/usr/share/texmf-dist/tex/latex/biblatex/biblatex.sty" 1447534125 3391 6b15f2cf6802f7549028e9ba75fe436b ""
  "/usr/share/texmf-dist/tex/latex/biblatex/biblatex2.sty" 1447534125 327181 09e5af07187441a899ae4cfd75a3a7c8 ""
  "/usr/share/texmf-dist/tex/latex/biblatex/blx-compat.def" 1447534125 4333 ef24122c2a3b5e1349da4bafaa79b787 ""
  "/usr/share/texmf-dist/tex/latex/biblatex/blx-dm.def" 1447534125 28413 72ad1a9e083ca0ddc894db0570313b3d ""
  "/usr/share/texmf-dist/tex/latex/biblatex/cbx/numeric.cbx" 1447534125 4386 6a7ab103e336f0719186c2df3484a1ad ""
  "/usr/share/texmf-dist/tex/latex/biblatex/lbx/english.lbx" 1447534125 31406 b134ca0a9c994125c620158738376041 ""
  "/usr/share/texmf-dist/tex/latex/etex-pkg/etex.sty" 1447534195 17114 1208b1919886a65e7f4243e4417346aa ""
  "/usr/share/texmf-dist/tex/latex/etoolbox/etoolbox.sty" 1447536546 41547 7860e623236f5f726a4099bbb7dd89fb ""
  "/usr/share/texmf-dist/tex/latex/filehook/filehook.sty" 1447536546 12104 88bda8c1ae09e2b6dc29ed32629eafa1 ""
  "/usr/share/texmf-dist/tex/latex/geometry/geometry.sty" 1447534195 40502 e003406220954b0716679d7928aedd8a ""
  "/usr/share/texmf-dist/tex/latex/graphics/graphics.sty" 1447534195 14285 20d80486c4ae98139889d8789596c967 ""
  "/usr/share/texmf-dist/tex/latex/graphics/graphicx.sty" 1447534195 8125 557ab9f1bfa80d369fb45a914aa8a3b4 ""
  "/usr/share/texmf-dist/tex/latex/graphics/keyval.sty" 1447534195 2594 d18d5e19aa8239cf867fa670c556d2e9 ""
  "/usr/share/texmf-dist/tex/latex/graphics/trig.sty" 1447534195 3439 44bd4a1da7f27787173f2e99116b0a7f ""
  "/usr/share/texmf-dist/tex/latex/hyperref/hpdftex.def" 1447534195 51837 247bd8424b3835ef78c236dc1e0b4aef ""
  "/usr/share/texmf-dist/tex/latex/hyperref/hyperref.sty" 1447534195 231792 5fc9dc7dd667e773a766ecc63bba7f4b ""
  "/usr/share/texmf-dist/tex/latex/hyperref/nameref.sty" 1447534195 12847 25b617d63258c4f72870c883493a3cf8 ""
  "/usr/share/texmf-dist/tex/latex/hyperref/pd1enc.def" 1447534195 14005 155ac8fad2e5dd7c2cdd130fabd96633 ""
  "/usr/share/texmf-dist/tex/latex/latexconfig/color.cfg" 1447534195 802 7b8c8d72c24d795ed7720e4dfd29bff3 ""
  "/usr/share/texmf-dist/tex/latex/latexconfig/epstopdf-sys.cfg" 1447534195 678 4792914a8f45be57bb98413425e4c7af ""
  "/usr/share/texmf-dist/tex/latex/latexconfig/graphics.cfg" 1447534195 3563 d35e897cae3b8c6848f6677b73370b54 ""
  "/usr/share/texmf-dist/tex/latex/latexconfig/hyperref.cfg" 1447534195 235 6031e5765137be07eed51a510b2b8fb7 ""
  "/usr/share/texmf-dist/tex/latex/logreq/logreq.def" 1447534125 1620 fb1c32b818f2058eca187e5c41dfae77 ""
  "/usr/share/texmf-dist/tex/latex/logreq/logreq.sty" 1447534125 6187 b27afc771af565d3a9ff1ca7d16d0d46 ""
  "/usr/share/texmf-dist/tex/latex/ms/everyshi.sty" 1447534195 3878 6aa7c08ff2621006e0603349e40a30a8 ""
  "/usr/share/texmf-dist/tex/latex/oberdiek/auxhook.sty" 1447534195 3834 707ef09f31d7d2ea47ba89974755dfe0 ""
  "/usr/share/texmf-dist/tex/latex/oberdiek/epstopdf-base.sty" 1447534195 12029 04d7fdf76e0464c23b5aa3a727952d7c ""
  "/usr/share/texmf-dist/tex/latex/oberdiek/grfext.sty" 1447534195 7075 bd0c34fbf1ae8fd1debd2a554e41b2d5 ""
  "/usr/share/texmf-dist/tex/latex/oberdiek/kvoptions.sty" 1447534195 22417 c74ff4af6a1aa2b65d1924020edbbe11 ""
  "/usr/share/texmf-dist/tex/latex/oberdiek/rerunfilecheck.sty" 1447534195 9581 1158efc648bc09d5064db5703c882159 ""
  "/usr/share/texmf-dist/tex/latex/pdftex-def/pdftex.def" 1447534195 55368 3c8a0d99822330f2dfabc0dfb09ce897 ""
  "/usr/share/texmf-dist/tex/latex/pgf/basiclayer/pgf.sty" 1447534195 1197 8a80cdde14696a9198f1793a55dcf332 ""
  "/usr/share/texmf-dist/tex/latex/pgf/basiclayer/pgfcore.sty" 1447534195 410 5bf12ea7330e5f12c445332a4fe9a263 ""
  "/usr/share/texmf-dist/tex/latex/pgf/compatibility/pgfcomp-version-0-65.sty" 1447534195 21115 facf03b7dbe5ea2f5f1dce1ac84b5d05 ""
  "/usr/share/texmf-dist/tex/latex/pgf/compatibility/pgfcomp-version-1-18.sty" 1447534195 1091 d9163d29def82ee90370c8a63667742c ""
  "/usr/share/texmf-dist/tex/latex/pgf/frontendlayer/tikz.sty" 1447534195 339 592cf35cba3d400082b8a9a5d0199d70 ""
  "/usr/share/texmf-dist/tex/latex/pgf/math/pgfmath.sty" 1447534195 306 0796eafca5e159e6ec2167a6d22d81b1 ""
  "/usr/share/texmf-dist/tex/latex/pgf/systemlayer/pgfsys.sty" 1447534195 443 0b2e781830192df35c0fd357cf13e26e ""
  "/usr/share/texmf-dist/tex/latex/pgf/utilities/pgffor.sty" 1447534195 348 8927fde343487e003b01a4c2ca34073b ""
  "/usr/share/texmf-dist/tex/latex/pgf/utilities/pgfkeys.sty" 1447534195 274 4cad6e665cc93ac2ac979039a94fa1e1 ""
  "/usr/share/texmf-dist/tex/latex/pgf/utilities/pgfrcs.sty" 1447534195 325 2bcd023400636339210573e2b3ee298b ""
  "/usr/share/texmf-dist/tex/latex/pgf/utilities/xxcolor.sty" 1447534195 2267 e82edfd18fbf4047c6f20ed9467f27db ""
  "/usr/share/texmf-dist/tex/latex/sansmathaccent/ot1mathkerncmss.fd" 1447534364 1299 299fd4fecf7d7085f0a8361bcf0e7804 ""
  "/usr/share/texmf-dist/tex/latex/sansmathaccent/sansmathaccent.sty" 1447534364 4280 a62885a2f2d4221d634eb6cd5559e518 ""
  "/usr/share/texmf-dist/tex/latex/tkz-graph/tkz-graph.sty" 1447536596 45682 e37757d40e0a0402da04a7776f98c92c ""
  "/usr/share/texmf-dist/tex/latex/tools/enumerate.sty" 1447534196 3467 609c87b252511649d7cfce5d3c1d271d ""
  "/usr/share/texmf-dist/tex/latex/url/url.sty" 1447534196 12796 8edb7d69a20b857904dd0ea757c14ec9 ""
  "/usr/share/texmf-dist/tex/latex/xcolor/xcolor.sty" 1447534196 55224 a43bab84e0ac5e6efcaf9a98bde73a94 ""
  "/usr/share/texmf-dist/tex/latex/xkeyval/xkeyval.sty" 1447534196 4962 9c1069474ff71dbc47d5006555e352d3 ""
  "/usr/share/texmf-dist/web2c/texmf.cnf" 1447534201 31669 df537245012f3e5f05bdc55644b7a3df ""
  "/var/lib/texmf/fonts/map/pdftex/updmap/pdftex.map" 1461383338 1783878 cf8b1e7bbc2d6490b1e449a6b1daa41e ""
  "/var/lib/texmf/web2c/pdftex/pdflatex.fmt" 1461379270 7214063 531ac20d75e7c9dc63427379ef863f51 ""
  "img/automata.png" 1463095431 22021 582c51094507d62f8a19bc54c4b6ca55 ""
  "img/cell.png" 1463095431 14115 bd9f39d156e15d1bb4167805d7aff14b ""
  "img/moore.png" 1463095431 1674 1f0b34effb0920e4f3b7a2d58c41767b ""
  "img/sim1.png" 1463095432 254214 144f038fe8b4b215a62e1b0fb53a99f4 ""
  "img/sim2.png" 1463095433 278281 c2a72f9d621e75be4398c349af797d9f ""
  "img/sim3.png" 1463095434 273856 07203681d6e3f646db4db6dbd76d8e20 ""
  "img/sim5.png" 1463095436 281121 22ee87ab8094f7a0a633a2df62fef399 ""
  "img/sim6.png" 1463095437 273634 0d93ad6afb6ba5c6995e621353d871dd ""
  "img/sim7.png" 1463095437 265830 1a57a961f87ff488fb8afa37ab44980d ""
  "presentation.aux" 1463097165 15229 c01632e4b779fe24def285f2cfbaf050 ""
  "presentation.bbl" 1463097161 5816 8c64d0418951b105635c723e35da6a92 "biber presentation"
  "presentation.nav" 1463097165 9022 e1dbfa9c5d879057c457d56a8e9e1c64 ""
  "presentation.out" 1463097165 453 233e0d1659e19bf2fd077d6cfb46c4b7 ""
  "presentation.run.xml" 1463097165 2361 5fb2229c1671632f99c8b2f899a301a0 ""
  "presentation.tex" 1463097159 13352 aad3be68acae9fc4ac5cd3a568f3b90d ""
  "presentation.toc" 1463097165 991 d9ee1e114a7ead4c19db3b69042b1ee7 ""
  "references.bib" 1463097150 1491 137a291aad415bc5a63a090a8d494e54 ""
  (generated)
  "presentation.out"
  "presentation.nav"
  "presentation.toc"
  "presentation.bcf"
  "presentation.snm"
  "presentation.aux"
  "presentation.pdf"
  "presentation.run.xml"
  "presentation.log"
