\boolfalse {citerequest}\boolfalse {citetracker}\boolfalse {pagetracker}\boolfalse {backtracker}\relax 
\defcounter {refsection}{0}\relax 
\beamer@endinputifotherversion {3.36pt}
\defcounter {refsection}{0}\relax 
\beamer@sectionintoc {1}{Introducci\IeC {\'o}n}{3}{0}{1}
\defcounter {refsection}{0}\relax 
\beamer@sectionintoc {2}{Aut\IeC {\'o}mata celular}{4}{0}{2}
\defcounter {refsection}{0}\relax 
\beamer@sectionintoc {3}{Virus}{7}{0}{3}
\defcounter {refsection}{0}\relax 
\beamer@sectionintoc {4}{Epidemia}{9}{0}{4}
\defcounter {refsection}{0}\relax 
\beamer@sectionintoc {5}{Modelos epid\IeC {\'e}micos}{10}{0}{5}
\defcounter {refsection}{0}\relax 
\beamer@sectionintoc {6}{Simulaci\IeC {\'o}n}{28}{0}{6}
\defcounter {refsection}{0}\relax 
\beamer@sectionintoc {7}{Conclusiones}{34}{0}{7}
\defcounter {refsection}{0}\relax 
\beamer@sectionintoc {8}{Posibles mejoras}{35}{0}{8}
\defcounter {refsection}{0}\relax 
\beamer@sectionintoc {9}{Referencias bibliogr\IeC {\'a}ficas}{36}{0}{9}
