% $ biblatex auxiliary file $
% $ biblatex bbl format version 2.5 $
% Do not modify the above lines!
%
% This is an auxiliary file used by the 'biblatex' package.
% This file may safely be deleted. It will be recreated by
% biber as required.
%
\begingroup
\makeatletter
\@ifundefined{ver@biblatex.sty}
  {\@latex@error
     {Missing 'biblatex' package}
     {The bibliography requires the 'biblatex' package.}
      \aftergroup\endinput}
  {}
\endgroup


\refsection{0}
  \sortlist{nty}{nty}
    \entry{novivos}{article}{}
      \name{author}{1}{}{%
        {{hash=97b5990d842c1af86e466225e79354ae}{Andrewes}{A\bibinitperiod}{C.\bibnamedelimi H.}{C\bibinitperiod\bibinitdelim H\bibinitperiod}{}{}{}{}}%
      }
      \strng{namehash}{97b5990d842c1af86e466225e79354ae}
      \strng{fullhash}{97b5990d842c1af86e466225e79354ae}
      \field{sortinit}{A}
      \field{sortinithash}{b685c7856330eaee22789815b49de9bb}
      \field{labelnamesource}{author}
      \field{labeltitlesource}{title}
      \field{journaltitle}{W. W. Norton \& Company}
      \field{title}{The Natural History of Viruses.}
      \field{year}{1967}
    \endentry
    \entry{automata}{online}{}
      \name{author}{2}{}{%
        {{hash=4a5376c6a7a2de655ae96fa854093792}{Fu}{F\bibinitperiod}{Shih\bibnamedelima Ching}{S\bibinitperiod\bibinitdelim C\bibinitperiod}{}{}{}{}}%
        {{hash=8746a7f0d6774bd88724fffbf74095dd}{Milne}{M\bibinitperiod}{George}{G\bibinitperiod}{}{}{}{}}%
      }
      \strng{namehash}{cdb4e7c3cbaee87d9d57466de6d1b06c}
      \strng{fullhash}{cdb4e7c3cbaee87d9d57466de6d1b06c}
      \field{sortinit}{F}
      \field{sortinithash}{c6a7d9913bbd7b20ea954441c0460b78}
      \field{labelnamesource}{author}
      \field{labeltitlesource}{title}
      \field{day}{11}
      \field{month}{05}
      \field{title}{Epidemic Modelling Using Cellular Automata}
      \field{year}{2016}
      \verb{url}
      \verb https://www.researchgate.net/publication/228966629_Epidemic_Modelling_Using_Cellular_Automata
      \endverb
    \endentry
    \entry{virus}{online}{}
      \name{author}{1}{}{%
        {{hash=46b348c850d8882203ddf1f931436dfb}{Mandal}{M\bibinitperiod}{Dr\bibnamedelima Ananya}{D\bibinitperiod\bibinitdelim A\bibinitperiod}{}{}{}{}}%
      }
      \strng{namehash}{46b348c850d8882203ddf1f931436dfb}
      \strng{fullhash}{46b348c850d8882203ddf1f931436dfb}
      \field{sortinit}{M}
      \field{sortinithash}{2684bec41e9697b92699b46491061da2}
      \field{labelnamesource}{author}
      \field{labeltitlesource}{title}
      \field{day}{11}
      \field{month}{05}
      \field{title}{What is a Virus?}
      \field{year}{2016}
      \verb{url}
      \verb http://www.news-medical.net/health/What-is-a-Virus.aspx
      \endverb
    \endentry
    \entry{cnn}{online}{}
      \name{author}{1}{}{%
        {{hash=8ef82a5e2c8d10fd8a62f45994fbd5ae}{Moore}{M\bibinitperiod}{Jhon}{J\bibinitperiod}{}{}{}{}}%
      }
      \strng{namehash}{8ef82a5e2c8d10fd8a62f45994fbd5ae}
      \strng{fullhash}{8ef82a5e2c8d10fd8a62f45994fbd5ae}
      \field{sortinit}{M}
      \field{sortinithash}{2684bec41e9697b92699b46491061da2}
      \field{labelnamesource}{author}
      \field{labeltitlesource}{title}
      \field{day}{11}
      \field{month}{05}
      \field{title}{Deadly Diseases: Epidemics troughout history}
      \field{year}{2016}
      \verb{url}
      \verb http://edition.cnn.com/interactive/2014/10/health/epidemics-through-history/
      \endverb
    \endentry
    \entry{eq}{article}{}
      \name{author}{1}{}{%
        {{hash=08653f92a34223713905f689f00f3e6b}{R.\bibnamedelimi Beckley}{R\bibinitperiod\bibinitdelim B\bibinitperiod}{M.\bibnamedelimi Alexander}{M\bibinitperiod\bibinitdelim A\bibinitperiod}{}{}{C.\bibnamedelimi Weatherspoon}{C\bibinitperiod\bibinitdelim W\bibinitperiod}}%
      }
      \strng{namehash}{08653f92a34223713905f689f00f3e6b}
      \strng{fullhash}{08653f92a34223713905f689f00f3e6b}
      \field{sortinit}{R}
      \field{sortinithash}{c7387613477035a752d935acfc3e3ea2}
      \field{labelnamesource}{author}
      \field{labeltitlesource}{title}
      \field{journaltitle}{Project SIR}
      \field{title}{Modeling epidemics with differential equations}
      \field{pages}{1\bibrangedash 9}
      \range{pages}{9}
      \verb{doi}
      \verb http://www.tnstate.edu/mathematics/mathreu/filesreu/GroupProjectSIR.pdf
      \endverb
      \warn{\item Datamodel: Entry 'eq' (references.bib): Invalid format 'June 21, 2013' of date field 'date' - ignoring}
    \endentry
    \entry{epidemic}{article}{}
      \name{author}{1}{}{%
        {{hash=7ec8bd702c11c3058fc10c06e57cfd10}{Ryan}{R\bibinitperiod}{Frank}{F\bibinitperiod}{}{}{}{}}%
      }
      \strng{namehash}{7ec8bd702c11c3058fc10c06e57cfd10}
      \strng{fullhash}{7ec8bd702c11c3058fc10c06e57cfd10}
      \field{sortinit}{R}
      \field{sortinithash}{c7387613477035a752d935acfc3e3ea2}
      \field{labelnamesource}{author}
      \field{labeltitlesource}{title}
      \field{journaltitle}{Harper Collins}
      \field{title}{Virus X.}
      \field{year}{1996}
    \endentry
    \entry{wolfram}{online}{}
      \name{author}{1}{}{%
        {{hash=5d54d442adc2a0d430f0728fd6530577}{Weisstein}{W\bibinitperiod}{Eric\bibnamedelima W.}{E\bibinitperiod\bibinitdelim W\bibinitperiod}{}{}{}{}}%
      }
      \strng{namehash}{5d54d442adc2a0d430f0728fd6530577}
      \strng{fullhash}{5d54d442adc2a0d430f0728fd6530577}
      \field{sortinit}{W}
      \field{sortinithash}{99e3ba1b3f78bb6f073e7fa7ac11636b}
      \field{labelnamesource}{author}
      \field{labeltitlesource}{title}
      \field{day}{11}
      \field{month}{05}
      \field{title}{Cellular Automaton}
      \field{year}{2016}
      \verb{url}
      \verb http://mathworld.wolfram.com/CellularAutomaton.html
      \endverb
    \endentry
  \endsortlist
\endrefsection
\endinput

