\relax 
\@writefile{toc}{\contentsline {section}{\numberline {1}Domin\IeC {\'o}}{2}}
\@writefile{toc}{\contentsline {subsection}{\numberline {1.1}Algoritmo}{2}}
\@writefile{toc}{\contentsline {subsection}{\numberline {1.2}Diagrama de flujo}{2}}
\@writefile{toc}{\contentsline {section}{\numberline {2}Puntos}{3}}
\@writefile{toc}{\contentsline {subsection}{\numberline {2.1}Algoritmo}{3}}
\@writefile{toc}{\contentsline {subsection}{\numberline {2.2}Diagrama de flujo}{4}}
\@writefile{toc}{\contentsline {section}{\numberline {3}Archivo}{5}}
\@writefile{toc}{\contentsline {subsection}{\numberline {3.1}Algoritmo}{5}}
\@writefile{toc}{\contentsline {subsection}{\numberline {3.2}Diagrama de flujo}{5}}
\@writefile{toc}{\contentsline {section}{\numberline {4}Multiplicar Matriz}{6}}
\@writefile{toc}{\contentsline {subsection}{\numberline {4.1}Algoritmo}{6}}
\@writefile{toc}{\contentsline {subsection}{\numberline {4.2}Diagrama de flujo}{7}}
