1,3.0974527232203286,14.190623514881812
2,0.14307327362256927,4.409379086009594
3,0.14307327362256927,3.5903820318725024
4,0.11226799421612554,3.639998542565701
5,0.11226799421612554,3.6170177271336255
6,0.053562174208938274,3.576155132158873
7,0.053562174208938274,3.6517195067288255
8,0.053562174208938274,3.579303084214328
9,0.053562174208938274,3.583735827707044
10,0.023417952269138453,3.6340909091244646
11,0.023417952269138453,3.610735642323295
12,0.023417952269138453,3.619484621485627
13,0.023417952269138453,3.59521783314883
14,0.023417952269138453,3.6282538683454217
15,0.023417952269138453,3.646149226755621
16,0.023417952269138453,3.640492968550389
17,0.023417952269138453,3.594611938072861
18,0.023417952269138453,3.603314847070452
19,0.023417952269138453,3.6562543646546977
20,0.023417952269138453,3.6618098764703455
21,0.023417952269138453,3.6596100640110683
22,0.023417952269138453,3.5825785653198006
23,0.023417952269138453,3.61114785465783
24,0.023417952269138453,3.6426899806822837
25,0.017745877622690642,3.6203900072438007
26,0.017745877622690642,3.616408625333772
27,0.017745877622690642,3.637684258870802
28,0.017745877622690642,3.5997240425509673
29,0.017745877622690642,3.6086918993591253
30,0.017745877622690642,3.6086266852710764
31,0.017745877622690642,3.6434020489493735
32,0.017745877622690642,3.632428968159532
33,0.017745877622690642,3.618315584549335
34,0.017745877622690642,3.650543673128639
35,0.017745877622690642,3.6448352881758512
36,0.017745877622690642,3.630180534976984
37,0.017745877622690642,3.638873568618792
38,0.017745877622690642,3.612543989163453
39,0.017745877622690642,3.6226656860478545
40,0.017745877622690642,3.5817462686752837
41,0.017745877622690642,3.6455676945169215
42,0.017745877622690642,3.622636311570077
43,0.017745877622690642,3.654361440012111
44,0.017745877622690642,3.6110033952407035
45,0.017745877622690642,3.621441417240867
46,0.017745877622690642,3.653875606444549
47,0.017745877622690642,3.6470402441919156
48,0.017745877622690642,3.648178364448738
49,0.017745877622690642,3.5905077689395113
50,0.017745877622690642,3.6035653415050812
51,0.017745877622690642,3.5805644395181706
52,0.017745877622690642,3.648619910020453
53,0.017745877622690642,3.635787256769482
54,0.017745877622690642,3.612159366122574
55,0.017745877622690642,3.623419630580869
56,0.017745877622690642,3.5880441755118353
57,0.017745877622690642,3.6329091810289684
58,0.017745877622690642,3.603882834469789
59,0.017745877622690642,3.614564076731902
60,0.017745877622690642,3.6345285516231076
61,0.017745877622690642,3.601710289360455
62,0.017745877622690642,3.5700712164126682
63,0.017745877622690642,3.6270240967461413
64,0.017745877622690642,3.602579166938676
65,0.017745877622690642,3.6310408244917363
66,0.017745877622690642,3.614824851929444
67,0.017745877622690642,3.588910617412029
68,0.017745877622690642,3.600128898657531
69,0.006286720900860132,3.5612625724153357
