\relax 
\@writefile{toc}{\contentsline {section}{\numberline {1}M\IeC {\'a}ximo de 3}{2}}
\@writefile{toc}{\contentsline {subsection}{\numberline {1.1}Algoritmo}{2}}
\@writefile{toc}{\contentsline {subsection}{\numberline {1.2}Diagrama de flujo}{2}}
\@writefile{toc}{\contentsline {section}{\numberline {2}M\IeC {\'\i }nimo producto de 3}{3}}
\@writefile{toc}{\contentsline {subsection}{\numberline {2.1}Algoritmo}{3}}
\@writefile{toc}{\contentsline {subsection}{\numberline {2.2}Diagrama de flujo}{4}}
\@writefile{toc}{\contentsline {section}{\numberline {3}A\IeC {\~n}o bisiesto}{5}}
\@writefile{toc}{\contentsline {subsection}{\numberline {3.1}Algoritmo}{5}}
\@writefile{toc}{\contentsline {subsection}{\numberline {3.2}Diagrama de flujo}{5}}
