PWD /home/moy/Dropbox/CUCEI/Algoritmia/activities/s05_1
INPUT /usr/share/texmf-dist/web2c/texmf.cnf
INPUT /var/lib/texmf/web2c/pdftex/pdflatex.fmt
INPUT s04.tex
OUTPUT s04.log
INPUT /usr/share/texmf-dist/tex/latex/base/article.cls
INPUT /usr/share/texmf-dist/tex/latex/base/article.cls
INPUT /usr/share/texmf-dist/tex/latex/base/size10.clo
INPUT /usr/share/texmf-dist/tex/latex/base/size10.clo
INPUT /usr/share/texmf-dist/tex/latex/base/inputenc.sty
INPUT /usr/share/texmf-dist/tex/latex/base/inputenc.sty
INPUT /usr/share/texmf-dist/tex/latex/base/utf8.def
INPUT /usr/share/texmf-dist/tex/latex/base/utf8.def
INPUT /usr/share/texmf-dist/tex/latex/base/t1enc.dfu
INPUT /usr/share/texmf-dist/tex/latex/base/t1enc.dfu
INPUT /usr/share/texmf-dist/tex/latex/base/ot1enc.dfu
INPUT /usr/share/texmf-dist/tex/latex/base/ot1enc.dfu
INPUT /usr/share/texmf-dist/tex/latex/base/omsenc.dfu
INPUT /usr/share/texmf-dist/tex/latex/base/omsenc.dfu
INPUT /usr/share/texmf-dist/tex/latex/isodate/isodate.sty
INPUT /usr/share/texmf-dist/tex/latex/isodate/isodate.sty
INPUT /usr/share/texmf-dist/tex/latex/base/ifthen.sty
INPUT /usr/share/texmf-dist/tex/latex/base/ifthen.sty
INPUT /usr/share/texmf-dist/tex/latex/substr/substr.sty
INPUT /usr/share/texmf-dist/tex/latex/substr/substr.sty
INPUT /usr/share/texmf-dist/tex/latex/substr/substr.sty
INPUT /usr/share/texmf-dist/tex/latex/isodate/german.idf
INPUT /usr/share/texmf-dist/tex/latex/isodate/german.idf
INPUT /usr/share/texmf-dist/tex/latex/algorithmicx/algpseudocode.sty
INPUT /usr/share/texmf-dist/tex/latex/algorithmicx/algpseudocode.sty
INPUT /usr/share/texmf-dist/tex/latex/algorithmicx/algorithmicx.sty
INPUT /usr/share/texmf-dist/tex/latex/algorithmicx/algorithmicx.sty
INPUT /usr/share/texmf-dist/tex/latex/algorithms/algorithm.sty
INPUT /usr/share/texmf-dist/tex/latex/algorithms/algorithm.sty
INPUT /usr/share/texmf-dist/tex/latex/float/float.sty
INPUT /usr/share/texmf-dist/tex/latex/float/float.sty
INPUT /usr/share/texmf-dist/tex/latex/graphics/graphicx.sty
INPUT /usr/share/texmf-dist/tex/latex/graphics/graphicx.sty
INPUT /usr/share/texmf-dist/tex/latex/graphics/keyval.sty
INPUT /usr/share/texmf-dist/tex/latex/graphics/keyval.sty
INPUT /usr/share/texmf-dist/tex/latex/graphics/graphics.sty
INPUT /usr/share/texmf-dist/tex/latex/graphics/graphics.sty
INPUT /usr/share/texmf-dist/tex/latex/graphics/trig.sty
INPUT /usr/share/texmf-dist/tex/latex/graphics/trig.sty
INPUT /usr/share/texmf-dist/tex/latex/graphics-cfg/graphics.cfg
INPUT /usr/share/texmf-dist/tex/latex/graphics-cfg/graphics.cfg
INPUT /usr/share/texmf-dist/tex/latex/graphics-def/pdftex.def
INPUT /usr/share/texmf-dist/tex/latex/graphics-def/pdftex.def
INPUT /usr/share/texmf-dist/tex/generic/oberdiek/infwarerr.sty
INPUT /usr/share/texmf-dist/tex/generic/oberdiek/infwarerr.sty
INPUT /usr/share/texmf-dist/tex/generic/oberdiek/ltxcmds.sty
INPUT /usr/share/texmf-dist/tex/generic/oberdiek/ltxcmds.sty
INPUT /usr/share/texmf-dist/tex/latex/amsmath/amsmath.sty
INPUT /usr/share/texmf-dist/tex/latex/amsmath/amsmath.sty
INPUT /usr/share/texmf-dist/tex/latex/amsmath/amstext.sty
INPUT /usr/share/texmf-dist/tex/latex/amsmath/amstext.sty
INPUT /usr/share/texmf-dist/tex/latex/amsmath/amsgen.sty
INPUT /usr/share/texmf-dist/tex/latex/amsmath/amsgen.sty
INPUT /usr/share/texmf-dist/tex/latex/amsmath/amsbsy.sty
INPUT /usr/share/texmf-dist/tex/latex/amsmath/amsbsy.sty
INPUT /usr/share/texmf-dist/tex/latex/amsmath/amsopn.sty
INPUT /usr/share/texmf-dist/tex/latex/amsmath/amsopn.sty
INPUT s04.aux
INPUT s04.aux
OUTPUT s04.aux
INPUT /usr/share/texmf-dist/tex/context/base/mkii/supp-pdf.mkii
INPUT /usr/share/texmf-dist/tex/context/base/mkii/supp-pdf.mkii
INPUT /usr/share/texmf-dist/tex/generic/oberdiek/pdftexcmds.sty
INPUT /usr/share/texmf-dist/tex/generic/oberdiek/pdftexcmds.sty
INPUT /usr/share/texmf-dist/tex/generic/oberdiek/ifluatex.sty
INPUT /usr/share/texmf-dist/tex/generic/oberdiek/ifluatex.sty
INPUT /usr/share/texmf-dist/tex/generic/oberdiek/ifpdf.sty
INPUT /usr/share/texmf-dist/tex/generic/oberdiek/ifpdf.sty
INPUT /usr/share/texmf-dist/tex/latex/oberdiek/epstopdf-base.sty
INPUT /usr/share/texmf-dist/tex/latex/oberdiek/epstopdf-base.sty
INPUT /usr/share/texmf-dist/tex/latex/oberdiek/grfext.sty
INPUT /usr/share/texmf-dist/tex/latex/oberdiek/grfext.sty
INPUT /usr/share/texmf-dist/tex/generic/oberdiek/kvdefinekeys.sty
INPUT /usr/share/texmf-dist/tex/generic/oberdiek/kvdefinekeys.sty
INPUT /usr/share/texmf-dist/tex/latex/oberdiek/kvoptions.sty
INPUT /usr/share/texmf-dist/tex/latex/oberdiek/kvoptions.sty
INPUT /usr/share/texmf-dist/tex/generic/oberdiek/kvsetkeys.sty
INPUT /usr/share/texmf-dist/tex/generic/oberdiek/kvsetkeys.sty
INPUT /usr/share/texmf-dist/tex/generic/oberdiek/etexcmds.sty
INPUT /usr/share/texmf-dist/tex/generic/oberdiek/etexcmds.sty
INPUT /usr/share/texmf-dist/tex/latex/latexconfig/epstopdf-sys.cfg
INPUT /usr/share/texmf-dist/tex/latex/latexconfig/epstopdf-sys.cfg
INPUT /usr/share/texmf-dist/fonts/map/fontname/texfonts.map
INPUT /usr/share/texmf-dist/fonts/tfm/public/cm/cmr17.tfm
INPUT /usr/share/texmf-dist/fonts/tfm/public/cm/cmr12.tfm
INPUT /usr/share/texmf-dist/fonts/tfm/public/cm/cmr8.tfm
INPUT /usr/share/texmf-dist/fonts/tfm/public/cm/cmr6.tfm
INPUT /usr/share/texmf-dist/fonts/tfm/public/cm/cmmi12.tfm
INPUT /usr/share/texmf-dist/fonts/tfm/public/cm/cmmi8.tfm
INPUT /usr/share/texmf-dist/fonts/tfm/public/cm/cmmi6.tfm
INPUT /usr/share/texmf-dist/fonts/tfm/public/cm/cmsy10.tfm
INPUT /usr/share/texmf-dist/fonts/tfm/public/cm/cmsy8.tfm
INPUT /usr/share/texmf-dist/fonts/tfm/public/cm/cmsy6.tfm
INPUT /usr/share/texmf-dist/fonts/tfm/public/cm/cmex10.tfm
INPUT /usr/share/texmf-dist/fonts/tfm/public/amsfonts/cmextra/cmex8.tfm
INPUT /usr/share/texmf-dist/fonts/tfm/public/amsfonts/cmextra/cmex7.tfm
INPUT /usr/share/texmf-dist/fonts/tfm/public/cm/cmbx10.tfm
INPUT /usr/share/texmf-dist/fonts/tfm/public/cm/cmcsc10.tfm
INPUT /usr/share/texmf-dist/fonts/tfm/public/amsfonts/cmextra/cmex7.tfm
INPUT /usr/share/texmf-dist/fonts/tfm/public/amsfonts/cmextra/cmex7.tfm
OUTPUT s04.pdf
INPUT /var/lib/texmf/fonts/map/pdftex/updmap/pdftex.map
INPUT s04.aux
INPUT /usr/share/texmf-dist/fonts/type1/public/amsfonts/cm/cmbx10.pfb
INPUT /usr/share/texmf-dist/fonts/type1/public/amsfonts/cm/cmcsc10.pfb
INPUT /usr/share/texmf-dist/fonts/type1/public/amsfonts/cm/cmmi10.pfb
INPUT /usr/share/texmf-dist/fonts/type1/public/amsfonts/cm/cmr10.pfb
INPUT /usr/share/texmf-dist/fonts/type1/public/amsfonts/cm/cmr12.pfb
INPUT /usr/share/texmf-dist/fonts/type1/public/amsfonts/cm/cmr17.pfb
INPUT /usr/share/texmf-dist/fonts/type1/public/amsfonts/cm/cmr7.pfb
INPUT /usr/share/texmf-dist/fonts/type1/public/amsfonts/cm/cmr8.pfb
INPUT /usr/share/texmf-dist/fonts/type1/public/amsfonts/cm/cmsy10.pfb
