# Fdb version 3
["pdflatex"] 1479260916 "trie.tex" "trie.pdf" "trie" 1479260917
  "/usr/share/texmf-dist/fonts/map/fontname/texfonts.map" 1471317721 3287 e6b82fe08f5336d4d5ebc73fb1152e87 ""
  "/usr/share/texmf-dist/fonts/tfm/public/cm/cmmi12.tfm" 1471317719 1524 4414a8315f39513458b80dfc63bff03a ""
  "/usr/share/texmf-dist/fonts/tfm/public/cm/cmmi6.tfm" 1471317719 1512 f21f83efb36853c0b70002322c1ab3ad ""
  "/usr/share/texmf-dist/fonts/tfm/public/cm/cmmi8.tfm" 1471317719 1520 eccf95517727cb11801f4f1aee3a21b4 ""
  "/usr/share/texmf-dist/fonts/tfm/public/cm/cmr12.tfm" 1471317719 1288 655e228510b4c2a1abe905c368440826 ""
  "/usr/share/texmf-dist/fonts/tfm/public/cm/cmr17.tfm" 1471317719 1292 296a67155bdbfc32aa9c636f21e91433 ""
  "/usr/share/texmf-dist/fonts/tfm/public/cm/cmr6.tfm" 1471317719 1300 b62933e007d01cfd073f79b963c01526 ""
  "/usr/share/texmf-dist/fonts/tfm/public/cm/cmr8.tfm" 1471317719 1292 21c1c5bfeaebccffdb478fd231a0997d ""
  "/usr/share/texmf-dist/fonts/tfm/public/cm/cmsy10.tfm" 1471317719 1124 6c73e740cf17375f03eec0ee63599741 ""
  "/usr/share/texmf-dist/fonts/tfm/public/cm/cmsy6.tfm" 1471317719 1116 933a60c408fc0a863a92debe84b2d294 ""
  "/usr/share/texmf-dist/fonts/tfm/public/cm/cmsy8.tfm" 1471317719 1120 8b7d695260f3cff42e636090a8002094 ""
  "/usr/share/texmf-dist/fonts/type1/public/amsfonts/cm/cmr10.pfb" 1471317722 35752 024fb6c41858982481f6968b5fc26508 ""
  "/usr/share/texmf-dist/fonts/type1/public/amsfonts/cm/cmr12.pfb" 1471317722 32722 d7379af29a190c3f453aba36302ff5a9 ""
  "/usr/share/texmf-dist/fonts/type1/public/amsfonts/cm/cmr17.pfb" 1471317722 32362 179c33bbf43f19adbb3825bb4e36e57a ""
  "/usr/share/texmf-dist/tex/context/base/mkii/supp-pdf.mkii" 1471317728 71627 94eb9990bed73c364d7f53f960cc8c5b ""
  "/usr/share/texmf-dist/tex/generic/oberdiek/etexcmds.sty" 1471317725 7612 729a8cc22a1ee0029997c7f74717ae05 ""
  "/usr/share/texmf-dist/tex/generic/oberdiek/ifluatex.sty" 1471317725 7324 2310d1247db0114eb4726807c8837a0e ""
  "/usr/share/texmf-dist/tex/generic/oberdiek/ifpdf.sty" 1471317725 1226 01a89dfef361f60ae7df13cd2946bc16 ""
  "/usr/share/texmf-dist/tex/generic/oberdiek/infwarerr.sty" 1471317725 8253 473e0e41f9adadb1977e8631b8f72ea6 ""
  "/usr/share/texmf-dist/tex/generic/oberdiek/kvdefinekeys.sty" 1471317725 5152 b67a3a964ad9851e095110c854a1d461 ""
  "/usr/share/texmf-dist/tex/generic/oberdiek/kvsetkeys.sty" 1471317725 14040 ac8866aac45982ac84021584b0abb252 ""
  "/usr/share/texmf-dist/tex/generic/oberdiek/ltxcmds.sty" 1471317725 18425 5b3c0c59d76fac78978b5558e83c1f36 ""
  "/usr/share/texmf-dist/tex/generic/oberdiek/pdftexcmds.sty" 1471317725 20115 901306eb5d88a0bb40b00d0ce4448e2f ""
  "/usr/share/texmf-dist/tex/latex/base/article.cls" 1471317724 19821 310da678527a7dfe2a02c88af38079b7 ""
  "/usr/share/texmf-dist/tex/latex/base/ifthen.sty" 1471317724 5159 a08c9bbd48fc492f15b22e458bef961f ""
  "/usr/share/texmf-dist/tex/latex/base/inputenc.sty" 1471317724 4732 d63eda807ac82cca2ca8488efd31a966 ""
  "/usr/share/texmf-dist/tex/latex/base/omsenc.dfu" 1471317724 2004 b59846258a6c54fecbe43d981c7a8310 ""
  "/usr/share/texmf-dist/tex/latex/base/ot1enc.dfu" 1471317724 3181 f6d8c97e5b5009a3b4a1e34490b9aa0d ""
  "/usr/share/texmf-dist/tex/latex/base/size10.clo" 1471317724 8292 e897c12e1e886ce77fe26afc5d470886 ""
  "/usr/share/texmf-dist/tex/latex/base/t1enc.dfu" 1471317724 11059 f4f43783cf4a8ffee1b201d897840536 ""
  "/usr/share/texmf-dist/tex/latex/base/utf8.def" 1471317724 7784 02e454c0f50491e8730511d8fcc96a47 ""
  "/usr/share/texmf-dist/tex/latex/graphics-cfg/graphics.cfg" 1471317724 1224 978390e9c2234eab29404bc21b268d1e ""
  "/usr/share/texmf-dist/tex/latex/graphics-def/pdftex.def" 1471317724 57848 020e44545ff7e21278b080e3175d3354 ""
  "/usr/share/texmf-dist/tex/latex/graphics/graphics.sty" 1471317724 14539 727a4716746112f20fd860d095ccebd2 ""
  "/usr/share/texmf-dist/tex/latex/graphics/graphicx.sty" 1471317724 8125 557ab9f1bfa80d369fb45a914aa8a3b4 ""
  "/usr/share/texmf-dist/tex/latex/graphics/keyval.sty" 1471317724 2594 d18d5e19aa8239cf867fa670c556d2e9 ""
  "/usr/share/texmf-dist/tex/latex/graphics/trig.sty" 1471317724 3980 0a268fbfda01e381fa95821ab13b6aee ""
  "/usr/share/texmf-dist/tex/latex/isodate/german.idf" 1476971573 5396 d6e24de553680d1d60a3ab59b37e4f0e ""
  "/usr/share/texmf-dist/tex/latex/isodate/isodate.sty" 1476971573 16412 f6a0d2e7b1a5c8e7e504ce7d8b8b73d9 ""
  "/usr/share/texmf-dist/tex/latex/latexconfig/epstopdf-sys.cfg" 1471317724 678 4792914a8f45be57bb98413425e4c7af ""
  "/usr/share/texmf-dist/tex/latex/oberdiek/epstopdf-base.sty" 1471317724 12095 5337833c991d80788a43d3ce26bd1c46 ""
  "/usr/share/texmf-dist/tex/latex/oberdiek/grfext.sty" 1471317724 7075 2fe3d848bba95f139de11ded085e74aa ""
  "/usr/share/texmf-dist/tex/latex/oberdiek/kvoptions.sty" 1471317724 22417 1d9df1eb66848aa31b18a593099cf45c ""
  "/usr/share/texmf-dist/tex/latex/substr/substr.sty" 1476971572 5724 d3505925e87b345f11a5f17d58550dea ""
  "/usr/share/texmf-dist/web2c/texmf.cnf" 1471317729 31669 df537245012f3e5f05bdc55644b7a3df ""
  "/var/lib/texmf/fonts/map/pdftex/updmap/pdftex.map" 1477351219 1975767 ceb4a3e498ea08864fe77979f02f7f4a ""
  "/var/lib/texmf/web2c/pdftex/pdflatex.fmt" 1473722505 7252863 122603d29c1f9d4113ac49c334aae9b2 ""
  "img/trie.jpg" 1479260669 8125 5e52eafa403e8b35709276d274a50910 ""
  "trie.aux" 1479260917 8 a94a2480d3289e625eea47cd1b285758 ""
  "trie.tex" 1479260915 1367 f2ce12bc9edff5d03ea8c2f1807cf64a ""
  (generated)
  "trie.pdf"
  "trie.aux"
  "trie.log"
