\relax 
\@writefile{toc}{\contentsline {section}{\numberline {1}Conversi\IeC {\'o}n de \IeC {\textordmasculine }F a \IeC {\textordmasculine }C.}{2}}
\@writefile{toc}{\contentsline {subsection}{\numberline {1.1}Algoritmo}{2}}
\@writefile{toc}{\contentsline {subsection}{\numberline {1.2}Diagrama de flujo}{2}}
\@writefile{toc}{\contentsline {section}{\numberline {2}\IeC {\'A}rea de un rectangulo}{3}}
\@writefile{toc}{\contentsline {subsection}{\numberline {2.1}Algoritmo}{3}}
\@writefile{toc}{\contentsline {subsection}{\numberline {2.2}Diagrama de flujo}{3}}
\@writefile{toc}{\contentsline {section}{\numberline {3}Solcuiones a ecuacion cuadratica}{4}}
\@writefile{toc}{\contentsline {subsection}{\numberline {3.1}Algoritmo}{4}}
\@writefile{toc}{\contentsline {subsection}{\numberline {3.2}Diagrama de flujo}{4}}
